COMP/STAT112 Notebook - 8 Homework 2: Data Viz
…
#The template code would not run, so I used the new_bechdel data

#My attempt (found below) uses the bechdel test data from earlier because the article data doesn’t seem to load based on the above template

Code

bechdel

# A tibble: 1,794 × 15
    year imdb      title  test  clean_test binary budget domgross intgross code 
   <int> <chr>     <chr>  <chr> <ord>      <chr>   <int>    <dbl>    <dbl> <chr>
 1  2013 tt1711425 21 & … nota… notalk     FAIL   1.3 e7 25682380   4.22e7 2013…
 2  2012 tt1343727 Dredd… ok-d… ok         PASS   4.50e7 13414714   4.09e7 2012…
 3  2013 tt2024544 12 Ye… nota… notalk     FAIL   2   e7 53107035   1.59e8 2013…
 4  2013 tt1272878 2 Guns nota… notalk     FAIL   6.1 e7 75612460   1.32e8 2013…
 5  2013 tt0453562 42     men   men        FAIL   4   e7 95020213   9.50e7 2013…
 6  2013 tt1335975 47 Ro… men   men        FAIL   2.25e8 38362475   1.46e8 2013…
 7  2013 tt1606378 A Goo… nota… notalk     FAIL   9.2 e7 67349198   3.04e8 2013…
 8  2013 tt2194499 About… ok-d… ok         PASS   1.20e7 15323921   8.73e7 2013…
 9  2013 tt1814621 Admis… ok    ok         PASS   1.3 e7 18007317   1.80e7 2013…
10  2013 tt1815862 After… nota… notalk     FAIL   1.3 e8 60522097   2.44e8 2013…
# ℹ 1,784 more rows
# ℹ 5 more variables: budget_2013 <int>, domgross_2013 <dbl>,
#   intgross_2013 <dbl>, period_code <int>, decade_code <int>
…
